4,01; 2,004
4,02; 2,007
4,03; 2,011
4,04; 2,014
4,05; 2,018
4,06; 2,021
4,07; 2,025
4,08; 2,029
4,09; 2,032
4,1; 2,036
4,11; 2,039
4,12; 2,043
4,13; 2,046
4,14; 2,05
4,15; 2,053
4,16; 2,057
4,17; 2,06
4,18; 2,064
4,19; 2,067
4,2; 2,07
4,21; 2,074
4,22; 2,077
4,23; 2,081
4,24; 2,084
4,25; 2,087
4,26; 2,091
4,27; 2,094
4,28; 2,098
4,29; 2,101
4,3; 2,104
4,31; 2,108
4,32; 2,111
4,33; 2,114
4,34; 2,118
4,35; 2,121
4,36; 2,124
4,37; 2,128
4,38; 2,131
4,39; 2,134
4,4; 2,138
4,41; 2,141
4,42; 2,144
4,43; 2,147
4,44; 2,151
4,45; 2,154
4,46; 2,157
4,47; 2,16
4,48; 2,163
4,49; 2,167
4,5; 2,17
4,51; 2,173
4,52; 2,176
4,53; 2,18
4,54; 2,183
4,55; 2,186
4,56; 2,189
4,57; 2,192
4,58; 2,195
4,59; 2,198
4,6; 2,202
4,61; 2,205
4,62; 2,208
4,63; 2,211
4,64; 2,214
4,65; 2,217
4,66; 2,22
4,67; 2,223
4,68; 2,227
4,69; 2,23
4,7; 2,233
4,71; 2,236
4,72; 2,239
4,73; 2,242
4,74; 2,245
4,75; 2,248
4,76; 2,251
4,77; 2,254
4,78; 2,257
4,79; 2,26
4,8; 2,263
4,81; 2,266
4,82; 2,269
4,83; 2,272
4,84; 2,275
4,85; 2,278
4,86; 2,281
4,87; 2,284
4,88; 2,287
4,89; 2,29
4,9; 2,293
4,91; 2,296
4,92; 2,299
4,93; 2,302
4,94; 2,305
4,95; 2,307
4,96; 2,31
4,97; 2,313
4,98; 2,316
4,99; 2,319
5; 2,322
5,01; 2,325
5,02; 2,328
5,03; 2,331
5,04; 2,333
5,05; 2,336
5,06; 2,339
5,07; 2,342
5,08; 2,345
5,09; 2,348
5,1; 2,35
5,11; 2,353
5,12; 2,356
5,13; 2,359
5,14; 2,362
5,15; 2,365
5,16; 2,367
5,17; 2,37
5,18; 2,373
5,19; 2,376
5,2; 2,379
5,21; 2,381
5,22; 2,384
5,23; 2,387
5,24; 2,39
5,25; 2,392
5,26; 2,395
5,27; 2,398
5,28; 2,401
5,29; 2,403
5,3; 2,406
5,31; 2,409
5,32; 2,411
5,33; 2,414
5,34; 2,417
5,35; 2,42
5,36; 2,422
5,37; 2,425
5,38; 2,428
5,39; 2,43
5,4; 2,433
5,41; 2,436
5,42; 2,438
5,43; 2,441
5,44; 2,444
5,45; 2,446
5,46; 2,449
5,47; 2,452
5,48; 2,454
5,49; 2,457
5,5; 2,459
5,51; 2,462
5,52; 2,465
5,53; 2,467
5,54; 2,47
5,55; 2,472
5,56; 2,475
5,57; 2,478
5,58; 2,48
5,59; 2,483
5,6; 2,485
5,61; 2,488
5,62; 2,491
5,63; 2,493
5,64; 2,496
5,65; 2,498
5,66; 2,501
5,67; 2,503
5,68; 2,506
5,69; 2,508
5,7; 2,511
5,71; 2,513
5,72; 2,516
5,73; 2,519
5,74; 2,521
5,75; 2,524
5,76; 2,526
5,77; 2,529
5,78; 2,531
5,79; 2,534
5,8; 2,536
5,81; 2,539
5,82; 2,541
5,83; 2,543
5,84; 2,546
5,85; 2,548
5,86; 2,551
5,87; 2,553
5,88; 2,556
5,89; 2,558
5,9; 2,561
5,91; 2,563
5,92; 2,566
5,93; 2,568
5,94; 2,57
5,95; 2,573
5,96; 2,575
5,97; 2,578
5,98; 2,58
5,99; 2,583
6; 2,585
6,01; 2,587
6,02; 2,59
6,03; 2,592
6,04; 2,595
6,05; 2,597
6,06; 2,599
6,07; 2,602
6,08; 2,604
6,09; 2,606
6,1; 2,609
6,11; 2,611
6,12; 2,614
6,13; 2,616
6,14; 2,618
6,15; 2,621
6,16; 2,623
6,17; 2,625
6,18; 2,628
6,19; 2,63
6,2; 2,632
6,21; 2,635
6,22; 2,637
6,23; 2,639
6,24; 2,642
6,25; 2,644
6,26; 2,646
6,27; 2,648
6,28; 2,651
6,29; 2,653
6,3; 2,655
6,31; 2,658
6,32; 2,66
6,33; 2,662
6,34; 2,664
6,35; 2,667
6,36; 2,669
6,37; 2,671
6,38; 2,674
6,39; 2,676
6,4; 2,678
6,41; 2,68
6,42; 2,683
6,43; 2,685
6,44; 2,687
6,45; 2,689
6,46; 2,692
6,47; 2,694
6,48; 2,696
6,49; 2,698
6,5; 2,7
6,51; 2,703
6,52; 2,705
6,53; 2,707
6,54; 2,709
6,55; 2,711
6,56; 2,714
6,57; 2,716
6,58; 2,718
6,59; 2,72
6,6; 2,722
6,61; 2,725
6,62; 2,727
6,63; 2,729
6,64; 2,731
6,65; 2,733
6,66; 2,736
6,67; 2,738
6,68; 2,74
6,69; 2,742
6,7; 2,744
6,71; 2,746
6,72; 2,748
6,73; 2,751
6,74; 2,753
6,75; 2,755
6,76; 2,757
6,77; 2,759
6,78; 2,761
6,79; 2,763
6,8; 2,766
6,81; 2,768
6,82; 2,77
6,83; 2,772
6,84; 2,774
6,85; 2,776
6,86; 2,778
6,87; 2,78
6,88; 2,782
6,89; 2,785
6,9; 2,787
6,91; 2,789
6,92; 2,791
6,93; 2,793
6,94; 2,795
6,95; 2,797
6,96; 2,799
6,97; 2,801
6,98; 2,803
6,99; 2,805
7; 2,807
7,01; 2,809
7,02; 2,811
7,03; 2,814
7,04; 2,816
7,05; 2,818
7,06; 2,82
7,07; 2,822
7,08; 2,824
7,09; 2,826
7,1; 2,828
7,11; 2,83
7,12; 2,832
7,13; 2,834
7,14; 2,836
7,15; 2,838
7,16; 2,84
7,17; 2,842
7,18; 2,844
7,19; 2,846
7,2; 2,848
7,21; 2,85
7,22; 2,852
7,23; 2,854
7,24; 2,856
7,25; 2,858
7,26; 2,86
7,27; 2,862
7,28; 2,864
7,29; 2,866
7,3; 2,868
7,31; 2,87
7,32; 2,872
7,33; 2,874
7,34; 2,876
7,35; 2,878
7,36; 2,88
7,37; 2,882
7,38; 2,884
7,39; 2,886
7,4; 2,888
7,41; 2,889
7,42; 2,891
7,43; 2,893
7,44; 2,895
7,45; 2,897
7,46; 2,899
7,47; 2,901
7,48; 2,903
7,49; 2,905
7,5; 2,907
7,51; 2,909
7,52; 2,911
7,53; 2,913
7,54; 2,915
7,55; 2,916
7,56; 2,918
7,57; 2,92
7,58; 2,922
7,59; 2,924
7,6; 2,926
7,61; 2,928
7,62; 2,93
7,63; 2,932
7,64; 2,934
7,65; 2,935
7,66; 2,937
7,67; 2,939
7,68; 2,941
7,69; 2,943
7,7; 2,945
7,71; 2,947
7,72; 2,949
7,73; 2,95
7,74; 2,952
7,75; 2,954
7,76; 2,956
7,77; 2,958
7,78; 2,96
7,79; 2,962
7,8; 2,963
7,81; 2,965
7,82; 2,967
7,83; 2,969
7,84; 2,971
7,85; 2,973
7,86; 2,975
7,87; 2,976
7,88; 2,978
7,89; 2,98
7,9; 2,982
7,91; 2,984
7,92; 2,986
7,93; 2,987
7,94; 2,989
7,95; 2,991
7,96; 2,993
7,97; 2,995
7,98; 2,996
7,99; 2,998
8; 3
8,01; 3,002
8,02; 3,004
8,03; 3,005
8,04; 3,007
8,05; 3,009
8,06; 3,011
8,07; 3,013
8,08; 3,014
8,09; 3,016
8,1; 3,018
8,11; 3,02
8,12; 3,021
8,13; 3,023
8,14; 3,025
8,15; 3,027
8,16; 3,029
8,17; 3,03
8,18; 3,032
8,19; 3,034
8,2; 3,036
8,21; 3,037
8,22; 3,039
8,23; 3,041
8,24; 3,043
8,25; 3,044
8,26; 3,046
8,27; 3,048
8,28; 3,05
8,29; 3,051
8,3; 3,053
8,31; 3,055
8,32; 3,057
8,33; 3,058
8,34; 3,06
8,35; 3,062
8,36; 3,064
8,37; 3,065
8,38; 3,067
8,39; 3,069
8,4; 3,07
8,41; 3,072
8,42; 3,074
8,43; 3,076
8,44; 3,077
8,45; 3,079
8,46; 3,081
8,47; 3,082
8,48; 3,084
8,49; 3,086
8,5; 3,087
8,51; 3,089
8,52; 3,091
8,53; 3,093
8,54; 3,094
8,55; 3,096
8,56; 3,098
8,57; 3,099
8,58; 3,101
8,59; 3,103
8,6; 3,104
8,61; 3,106
8,62; 3,108
8,63; 3,109
8,64; 3,111
8,65; 3,113
8,66; 3,114
8,67; 3,116
8,68; 3,118
8,69; 3,119
8,7; 3,121
8,71; 3,123
8,72; 3,124
8,73; 3,126
8,74; 3,128
8,75; 3,129
8,76; 3,131
8,77; 3,133
8,78; 3,134
8,79; 3,136
8,8; 3,138
8,81; 3,139
8,82; 3,141
8,83; 3,142
8,84; 3,144
8,85; 3,146
8,86; 3,147
8,87; 3,149
8,88; 3,151
8,89; 3,152
8,9; 3,154
8,91; 3,155
8,92; 3,157
8,93; 3,159
8,94; 3,16
8,95; 3,162
8,96; 3,163
8,97; 3,165
8,98; 3,167
8,99; 3,168
9; 3,17
9,01; 3,172
9,02; 3,173
9,03; 3,175
9,04; 3,176
9,05; 3,178
9,06; 3,18
9,07; 3,181
9,08; 3,183
9,09; 3,184
9,1; 3,186
9,11; 3,187
9,12; 3,189
9,13; 3,191
9,14; 3,192
9,15; 3,194
9,16; 3,195
9,17; 3,197
9,18; 3,198
9,19; 3,2
9,2; 3,202
9,21; 3,203
9,22; 3,205
9,23; 3,206
9,24; 3,208
9,25; 3,209
9,26; 3,211
9,27; 3,213
9,28; 3,214
9,29; 3,216
9,3; 3,217
9,31; 3,219
9,32; 3,22
9,33; 3,222
9,34; 3,223
9,35; 3,225
9,36; 3,227
9,37; 3,228
9,38; 3,23
9,39; 3,231
9,4; 3,233
9,41; 3,234
9,42; 3,236
9,43; 3,237
9,44; 3,239
9,45; 3,24
9,46; 3,242
9,47; 3,243
9,48; 3,245
9,49; 3,246
9,5; 3,248
9,51; 3,249
9,52; 3,251
9,53; 3,252
9,54; 3,254
9,55; 3,256
9,56; 3,257
9,57; 3,259
9,58; 3,26
9,59; 3,262
9,6; 3,263
9,61; 3,265
9,62; 3,266
9,63; 3,268
9,64; 3,269
9,65; 3,271
9,66; 3,272
9,67; 3,274
9,68; 3,275
9,69; 3,276
9,7; 3,278
9,71; 3,279
9,72; 3,281
9,73; 3,282
9,74; 3,284
9,75; 3,285
9,76; 3,287
9,77; 3,288
9,78; 3,29
9,79; 3,291
9,8; 3,293
9,81; 3,294
9,82; 3,296
9,83; 3,297
9,84; 3,299
9,85; 3,3
9,86; 3,302
9,87; 3,303
9,88; 3,305
9,89; 3,306
9,9; 3,307
9,91; 3,309
9,92; 3,31
9,93; 3,312
9,94; 3,313
9,95; 3,315
9,96; 3,316
9,97; 3,318
9,98; 3,319
9,99; 3,32
10; 3,322
