4,01; 0,863
4,02; 0,864
4,03; 0,866
4,04; 0,868
4,05; 0,869
4,06; 0,871
4,07; 0,872
4,08; 0,874
4,09; 0,875
4,1; 0,877
4,11; 0,878
4,12; 0,88
4,13; 0,881
4,14; 0,883
4,15; 0,884
4,16; 0,886
4,17; 0,887
4,18; 0,889
4,19; 0,89
4,2; 0,892
4,21; 0,893
4,22; 0,895
4,23; 0,896
4,24; 0,898
4,25; 0,899
4,26; 0,9
4,27; 0,902
4,28; 0,903
4,29; 0,905
4,3; 0,906
4,31; 0,908
4,32; 0,909
4,33; 0,911
4,34; 0,912
4,35; 0,913
4,36; 0,915
4,37; 0,916
4,38; 0,918
4,39; 0,919
4,4; 0,921
4,41; 0,922
4,42; 0,923
4,43; 0,925
4,44; 0,926
4,45; 0,928
4,46; 0,929
4,47; 0,93
4,48; 0,932
4,49; 0,933
4,5; 0,935
4,51; 0,936
4,52; 0,937
4,53; 0,939
4,54; 0,94
4,55; 0,941
4,56; 0,943
4,57; 0,944
4,58; 0,945
4,59; 0,947
4,6; 0,948
4,61; 0,95
4,62; 0,951
4,63; 0,952
4,64; 0,954
4,65; 0,955
4,66; 0,956
4,67; 0,958
4,68; 0,959
4,69; 0,96
4,7; 0,962
4,71; 0,963
4,72; 0,964
4,73; 0,966
4,74; 0,967
4,75; 0,968
4,76; 0,969
4,77; 0,971
4,78; 0,972
4,79; 0,973
4,8; 0,975
4,81; 0,976
4,82; 0,977
4,83; 0,979
4,84; 0,98
4,85; 0,981
4,86; 0,982
4,87; 0,984
4,88; 0,985
4,89; 0,986
4,9; 0,987
4,91; 0,989
4,92; 0,99
4,93; 0,991
4,94; 0,992
4,95; 0,994
4,96; 0,995
4,97; 0,996
4,98; 0,998
4,99; 0,999
5; 1
5,01; 1,001
5,02; 1,002
5,03; 1,004
5,04; 1,005
5,05; 1,006
5,06; 1,007
5,07; 1,009
5,08; 1,01
5,09; 1,011
5,1; 1,012
5,11; 1,014
5,12; 1,015
5,13; 1,016
5,14; 1,017
5,15; 1,018
5,16; 1,02
5,17; 1,021
5,18; 1,022
5,19; 1,023
5,2; 1,024
5,21; 1,026
5,22; 1,027
5,23; 1,028
5,24; 1,029
5,25; 1,03
5,26; 1,031
5,27; 1,033
5,28; 1,034
5,29; 1,035
5,3; 1,036
5,31; 1,037
5,32; 1,039
5,33; 1,04
5,34; 1,041
5,35; 1,042
5,36; 1,043
5,37; 1,044
5,38; 1,046
5,39; 1,047
5,4; 1,048
5,41; 1,049
5,42; 1,05
5,43; 1,051
5,44; 1,052
5,45; 1,054
5,46; 1,055
5,47; 1,056
5,48; 1,057
5,49; 1,058
5,5; 1,059
5,51; 1,06
5,52; 1,061
5,53; 1,063
5,54; 1,064
5,55; 1,065
5,56; 1,066
5,57; 1,067
5,58; 1,068
5,59; 1,069
5,6; 1,07
5,61; 1,072
5,62; 1,073
5,63; 1,074
5,64; 1,075
5,65; 1,076
5,66; 1,077
5,67; 1,078
5,68; 1,079
5,69; 1,08
5,7; 1,081
5,71; 1,083
5,72; 1,084
5,73; 1,085
5,74; 1,086
5,75; 1,087
5,76; 1,088
5,77; 1,089
5,78; 1,09
5,79; 1,091
5,8; 1,092
5,81; 1,093
5,82; 1,094
5,83; 1,095
5,84; 1,096
5,85; 1,098
5,86; 1,099
5,87; 1,1
5,88; 1,101
5,89; 1,102
5,9; 1,103
5,91; 1,104
5,92; 1,105
5,93; 1,106
5,94; 1,107
5,95; 1,108
5,96; 1,109
5,97; 1,11
5,98; 1,111
5,99; 1,112
6; 1,113
6,01; 1,114
6,02; 1,115
6,03; 1,116
6,04; 1,117
6,05; 1,118
6,06; 1,119
6,07; 1,12
6,08; 1,122
6,09; 1,123
6,1; 1,124
6,11; 1,125
6,12; 1,126
6,13; 1,127
6,14; 1,128
6,15; 1,129
6,16; 1,13
6,17; 1,131
6,18; 1,132
6,19; 1,133
6,2; 1,134
6,21; 1,135
6,22; 1,136
6,23; 1,137
6,24; 1,138
6,25; 1,139
6,26; 1,14
6,27; 1,141
6,28; 1,142
6,29; 1,143
6,3; 1,144
6,31; 1,145
6,32; 1,146
6,33; 1,147
6,34; 1,148
6,35; 1,149
6,36; 1,149
6,37; 1,15
6,38; 1,151
6,39; 1,152
6,4; 1,153
6,41; 1,154
6,42; 1,155
6,43; 1,156
6,44; 1,157
6,45; 1,158
6,46; 1,159
6,47; 1,16
6,48; 1,161
6,49; 1,162
6,5; 1,163
6,51; 1,164
6,52; 1,165
6,53; 1,166
6,54; 1,167
6,55; 1,168
6,56; 1,169
6,57; 1,17
6,58; 1,171
6,59; 1,172
6,6; 1,173
6,61; 1,173
6,62; 1,174
6,63; 1,175
6,64; 1,176
6,65; 1,177
6,66; 1,178
6,67; 1,179
6,68; 1,18
6,69; 1,181
6,7; 1,182
6,71; 1,183
6,72; 1,184
6,73; 1,185
6,74; 1,186
6,75; 1,186
6,76; 1,187
6,77; 1,188
6,78; 1,189
6,79; 1,19
6,8; 1,191
6,81; 1,192
6,82; 1,193
6,83; 1,194
6,84; 1,195
6,85; 1,196
6,86; 1,197
6,87; 1,197
6,88; 1,198
6,89; 1,199
6,9; 1,2
6,91; 1,201
6,92; 1,202
6,93; 1,203
6,94; 1,204
6,95; 1,205
6,96; 1,206
6,97; 1,206
6,98; 1,207
6,99; 1,208
7; 1,209
7,01; 1,21
7,02; 1,211
7,03; 1,212
7,04; 1,213
7,05; 1,213
7,06; 1,214
7,07; 1,215
7,08; 1,216
7,09; 1,217
7,1; 1,218
7,11; 1,219
7,12; 1,22
7,13; 1,22
7,14; 1,221
7,15; 1,222
7,16; 1,223
7,17; 1,224
7,18; 1,225
7,19; 1,226
7,2; 1,227
7,21; 1,227
7,22; 1,228
7,23; 1,229
7,24; 1,23
7,25; 1,231
7,26; 1,232
7,27; 1,233
7,28; 1,233
7,29; 1,234
7,3; 1,235
7,31; 1,236
7,32; 1,237
7,33; 1,238
7,34; 1,239
7,35; 1,239
7,36; 1,24
7,37; 1,241
7,38; 1,242
7,39; 1,243
7,4; 1,244
7,41; 1,244
7,42; 1,245
7,43; 1,246
7,44; 1,247
7,45; 1,248
7,46; 1,249
7,47; 1,249
7,48; 1,25
7,49; 1,251
7,5; 1,252
7,51; 1,253
7,52; 1,254
7,53; 1,254
7,54; 1,255
7,55; 1,256
7,56; 1,257
7,57; 1,258
7,58; 1,259
7,59; 1,259
7,6; 1,26
7,61; 1,261
7,62; 1,262
7,63; 1,263
7,64; 1,263
7,65; 1,264
7,66; 1,265
7,67; 1,266
7,68; 1,267
7,69; 1,267
7,7; 1,268
7,71; 1,269
7,72; 1,27
7,73; 1,271
7,74; 1,272
7,75; 1,272
7,76; 1,273
7,77; 1,274
7,78; 1,275
7,79; 1,276
7,8; 1,276
7,81; 1,277
7,82; 1,278
7,83; 1,279
7,84; 1,279
7,85; 1,28
7,86; 1,281
7,87; 1,282
7,88; 1,283
7,89; 1,283
7,9; 1,284
7,91; 1,285
7,92; 1,286
7,93; 1,287
7,94; 1,287
7,95; 1,288
7,96; 1,289
7,97; 1,29
7,98; 1,29
7,99; 1,291
8; 1,292
8,01; 1,293
8,02; 1,294
8,03; 1,294
8,04; 1,295
8,05; 1,296
8,06; 1,297
8,07; 1,297
8,08; 1,298
8,09; 1,299
8,1; 1,3
8,11; 1,301
8,12; 1,301
8,13; 1,302
8,14; 1,303
8,15; 1,304
8,16; 1,304
8,17; 1,305
8,18; 1,306
8,19; 1,307
8,2; 1,307
8,21; 1,308
8,22; 1,309
8,23; 1,31
8,24; 1,31
8,25; 1,311
8,26; 1,312
8,27; 1,313
8,28; 1,313
8,29; 1,314
8,3; 1,315
8,31; 1,316
8,32; 1,316
8,33; 1,317
8,34; 1,318
8,35; 1,319
8,36; 1,319
8,37; 1,32
8,38; 1,321
8,39; 1,322
8,4; 1,322
8,41; 1,323
8,42; 1,324
8,43; 1,325
8,44; 1,325
8,45; 1,326
8,46; 1,327
8,47; 1,328
8,48; 1,328
8,49; 1,329
8,5; 1,33
8,51; 1,33
8,52; 1,331
8,53; 1,332
8,54; 1,333
8,55; 1,333
8,56; 1,334
8,57; 1,335
8,58; 1,336
8,59; 1,336
8,6; 1,337
8,61; 1,338
8,62; 1,338
8,63; 1,339
8,64; 1,34
8,65; 1,341
8,66; 1,341
8,67; 1,342
8,68; 1,343
8,69; 1,343
8,7; 1,344
8,71; 1,345
8,72; 1,346
8,73; 1,346
8,74; 1,347
8,75; 1,348
8,76; 1,348
8,77; 1,349
8,78; 1,35
8,79; 1,351
8,8; 1,351
8,81; 1,352
8,82; 1,353
8,83; 1,353
8,84; 1,354
8,85; 1,355
8,86; 1,355
8,87; 1,356
8,88; 1,357
8,89; 1,358
8,9; 1,358
8,91; 1,359
8,92; 1,36
8,93; 1,36
8,94; 1,361
8,95; 1,362
8,96; 1,362
8,97; 1,363
8,98; 1,364
8,99; 1,365
9; 1,365
9,01; 1,366
9,02; 1,367
9,03; 1,367
9,04; 1,368
9,05; 1,369
9,06; 1,369
9,07; 1,37
9,08; 1,371
9,09; 1,371
9,1; 1,372
9,11; 1,373
9,12; 1,373
9,13; 1,374
9,14; 1,375
9,15; 1,375
9,16; 1,376
9,17; 1,377
9,18; 1,378
9,19; 1,378
9,2; 1,379
9,21; 1,38
9,22; 1,38
9,23; 1,381
9,24; 1,382
9,25; 1,382
9,26; 1,383
9,27; 1,384
9,28; 1,384
9,29; 1,385
9,3; 1,386
9,31; 1,386
9,32; 1,387
9,33; 1,388
9,34; 1,388
9,35; 1,389
9,36; 1,39
9,37; 1,39
9,38; 1,391
9,39; 1,392
9,4; 1,392
9,41; 1,393
9,42; 1,394
9,43; 1,394
9,44; 1,395
9,45; 1,396
9,46; 1,396
9,47; 1,397
9,48; 1,397
9,49; 1,398
9,5; 1,399
9,51; 1,399
9,52; 1,4
9,53; 1,401
9,54; 1,401
9,55; 1,402
9,56; 1,403
9,57; 1,403
9,58; 1,404
9,59; 1,405
9,6; 1,405
9,61; 1,406
9,62; 1,407
9,63; 1,407
9,64; 1,408
9,65; 1,409
9,66; 1,409
9,67; 1,41
9,68; 1,41
9,69; 1,411
9,7; 1,412
9,71; 1,412
9,72; 1,413
9,73; 1,414
9,74; 1,414
9,75; 1,415
9,76; 1,416
9,77; 1,416
9,78; 1,417
9,79; 1,417
9,8; 1,418
9,81; 1,419
9,82; 1,419
9,83; 1,42
9,84; 1,421
9,85; 1,421
9,86; 1,422
9,87; 1,423
9,88; 1,423
9,89; 1,424
9,9; 1,424
9,91; 1,425
9,92; 1,426
9,93; 1,426
9,94; 1,427
9,95; 1,428
9,96; 1,428
9,97; 1,429
9,98; 1,429
9,99; 1,43
10; 1,431
